{
  "current": {
    "color_body_bg": "#fffdf8",
    "color_body_text": "#000000",
    "color_button": "#bed8ed",
    "color_button_text": "#000000",
    "color_sale_price": "#000000",
    "color_sale_tag": "#bed8ed",
    "color_sale_tag_text": "#000000",
    "color_cart_dot": "#bed8ed",
    "color_cart_dot_text": "#000000",
    "color_alt_bg": "#fef6e4",
    "color_alt_text": "#000000",
    "color_announcement": "#fef6e3",
    "color_announcement_text": "#000000",
    "color_newsletter": "#fef6e3",
    "color_newsletter_text": "#000000",
    "color_drawer_background": "#fdf9f5",
    "color_drawer_text": "#000000",
    "color_image_text": "#000000",
    "color_image_overlay": "#ffffff",
    "color_image_overlay_opacity": 0,
    "color_image_overlay_text_shadow": 0,
    "color_footer_bg": "#bed8ed",
    "color_footer_text": "#000000",
    "color_small_image_bg": "#fdfbfa",
    "color_large_image_bg": "#eee5e0",
    "type_header_font_family": "itc_novarese_n5",
    "type_header_capitalize": false,
    "type_header_spacing": 0,
    "type_header_base_size": 50,
    "type_header_line_height": 1.1,
    "type_base_font_family": "nunito_sans_n4",
    "type_product_capitalize": false,
    "type_base_spacing": 25,
    "type_base_size": 18,
    "type_base_line_height": 1.7,
    "button_type_style": "normal",
    "button_style": "shadow",
    "type_navigation_size": 24,
    "animate_images": true,
    "animate_page_transitions": true,
    "logo_loader_image": "shopify:\/\/shop_images\/Hermit-Logo.png",
    "desktop_loader_width": 140,
    "mobile_loader_width": 130,
    "product_hover_details": false,
    "product_hover_image": false,
    "product_image_scatter": false,
    "product_grid_image_size": "natural",
    "vendor_enable": false,
    "product_save_amount": false,
    "product_save_type": "dollar",
    "product_color_swatches": false,
    "collection_color_swatches": false,
    "additional_content_style": "tab",
    "product_content_1": "",
    "product_content_2": "",
    "product_content_3": "",
    "trust_image": "",
    "product_contact": false,
    "product_contact_title": "Question?",
    "product_contact_show_phone": false,
    "enable_product_reviews": true,
    "enable_product_reviews_collection": false,
    "quick_shop_enable": false,
    "quick_shop_style": "full",
    "product_image_size": "large",
    "product_image_type": "stacked",
    "product_zoom_enable": true,
    "product_shipping_callout": "",
    "sku_enable": false,
    "inventory_enable": false,
    "inventory_threshold": 10,
    "inventory_transfers_enable": false,
    "social_enable": true,
    "cart_type": "drawer",
    "cart_icon": "cart",
    "cart_additional_buttons": false,
    "cart_notes_enable": false,
    "cart_terms_conditions_enable": false,
    "cart_terms_conditions_link": "",
    "social_instagram_link": "https:\/\/instagram.com\/shopify",
    "social_facebook_link": "https:\/\/www.facebook.com\/shopify",
    "social_twitter_link": "",
    "social_pinterest_link": "https:\/\/www.pinterest.com\/shopify",
    "social_snapchat_link": "",
    "social_tiktok_link": "",
    "social_tumblr_link": "",
    "social_linkedin_link": "",
    "social_youtube_link": "",
    "social_vimeo_link": "",
    "share_facebook": true,
    "share_twitter": true,
    "share_pinterest": true,
    "favicon": "",
    "search_type": "product",
    "checkout_header_image": "",
    "checkout_logo_image": "shopify:\/\/shop_images\/Hermit-Logo.png",
    "checkout_logo_position": "left",
    "checkout_logo_size": "small",
    "checkout_body_background_image": "",
    "checkout_body_background_color": "#fffdf8",
    "checkout_input_background_color_mode": "transparent",
    "checkout_sidebar_background_image": "",
    "checkout_sidebar_background_color": "#fffdf8",
    "checkout_heading_font": "Open Sans",
    "checkout_body_font": "Open Sans",
    "checkout_accent_color": "#111111",
    "checkout_button_color": "#97bbb3",
    "checkout_error_color": "#97bbb3",
    "animate_page_transition_style": "page-logo",
    "checkout_banner_background_color": "#ffffff",
    "checkout_call_to_action_color": "#a26b25",
    "checkout_use_header_image": false,
    "product_video_style": "muted",
    "reviews_layout": "full",
    "color_image_bg": "#000000",
    "sections": {
      "header": {
        "type": "header",
        "settings": {
          "header_style": "top",
          "main_menu_alignment": "right",
          "sticky_index": true,
          "sticky_collection": true,
          "header_search_enable": false,
          "logo": "shopify:\/\/shop_images\/Hermit-Logo.png",
          "desktop_logo_width": 130,
          "mobile_logo_width": 100,
          "logo_hide_mobile": true,
          "main_menu_link_list": "nav-bar",
          "main_menu_link_list_mobile": "main-menu-mobile",
          "show_announcement": true,
          "show_announcement_home_only": false,
          "announcement_text": "Free shipping on orders over $50",
          "announcement_link": "shopify:\/\/collections\/frontpage"
        }
      },
      "footer": {
        "type": "footer",
        "blocks": {
          "1597260078764": {
            "type": "linklist",
            "settings": {
              "title": "Shop",
              "linklist": "footer-shop"
            }
          },
          "1597260081788": {
            "type": "linklist",
            "settings": {
              "title": "Learn",
              "linklist": "footer-learn"
            }
          },
          "1597260082644": {
            "type": "linklist",
            "settings": {
              "title": "Contact",
              "linklist": "footer-contact-us"
            }
          },
          "1597260080735": {
            "type": "linklist",
            "settings": {
              "title": "Follow",
              "linklist": "footer-follow"
            }
          }
        },
        "block_order": [
          "1597260078764",
          "1597260081788",
          "1597260082644",
          "1597260080735"
        ],
        "settings": {
          "show_newsletter": true,
          "newsletter_title": "Become a hermit!",
          "newsletter_richtext": "<p>Be the first to know about deals and new product launches.  <\/p>",
          "show_locale_selector": false,
          "show_currency_selector": false,
          "show_currency_flags": false,
          "show_social_icons": false,
          "menu": "",
          "show_payment_icons": false,
          "show_copyright": false,
          "copyright_text": ""
        }
      },
      "collection-template": {
        "type": "collection-template",
        "settings": {
          "per_row_desktop": 3,
          "per_row_mobile": "1",
          "description_bottom": false
        }
      },
      "product-template": {
        "type": "product-template",
        "settings": {
          "product_image_size": "large",
          "product_image_type": "slider",
          "product_zoom_enable": false,
          "enable_video_looping": false,
          "product_video_style": "muted",
          "enable_payment_button": true,
          "product_shipping_callout": "",
          "variant_type": "button",
          "variant_labels_enable": false,
          "sku_enable": false,
          "inventory_enable": false,
          "inventory_threshold": 10,
          "inventory_transfers_enable": false,
          "quantity_enable": false,
          "social_enable": false
        }
      },
      "article-template": {
        "type": "article-template",
        "settings": {
          "blog_show_image": false,
          "blog_show_tags": true,
          "blog_show_date": false,
          "blog_show_comments": true,
          "blog_show_author": false,
          "social_sharing_blog": false
        }
      },
      "blog-template": {
        "type": "blog-template",
        "settings": {
          "layout": "grid",
          "post_limit": 9,
          "blog_show_tag_filter": true,
          "blog_show_rss": false,
          "blog_show_tags": true,
          "blog_show_date": false,
          "blog_show_comments": true,
          "blog_show_author": false,
          "blog_show_excerpt": false,
          "blog_image_size": "wide"
        }
      },
      "product-sections": {
        "type": "product-sections",
        "blocks": {
          "product-text-and-image": {
            "type": "text-and-image",
            "settings": {
              "image": "shopify:\/\/shop_images\/Cone-Blue.jpg",
              "image_width": 380,
              "subtitle": "",
              "title": "Image with text",
              "text": "<p>Pair large text with an image to tell a story, explain a detail about your products, or describe a new promotion.<\/p>",
              "button_label": "",
              "button_style": "primary",
              "layout": "right",
              "alt": false
            }
          }
        },
        "block_order": [
          "product-text-and-image"
        ],
        "settings": {
        }
      },
      "page-sections-template": {
        "type": "page-sections-template",
        "blocks": {
          "1594838312544": {
            "type": "image-hero",
            "settings": {
              "title": "About Us",
              "title_size": 45,
              "subheading": "",
              "link_text": "",
              "text_align": "vertical-bottom horizontal-left",
              "image": "shopify:\/\/shop_images\/Blue-About_7626bc4f-8926-4d49-913b-17567f862e9b.jpg",
              "desktop_size": -20,
              "image_mobile": "shopify:\/\/shop_images\/DSC_2513_34090fdb-8546-4c8a-8754-a3fa24f4459f.png",
              "mobile_size": -50,
              "focal_point": "80% 10%"
            }
          },
          "1594838359244": {
            "type": "rich-text",
            "settings": {
              "title": "",
              "text": "<p>We’re here to support you during those precious moments spent alone with clean, quality, simple essentials. <\/p><p><\/p><p><\/p>",
              "align_text": "center",
              "narrow_column": true,
              "enlarge_text": true,
              "alt": false
            }
          },
          "1594838461795": {
            "type": "text-and-image",
            "settings": {
              "image": "shopify:\/\/shop_images\/Cone-Blue.jpg",
              "image2": "shopify:\/\/shop_images\/Water.jpg",
              "image_width": 700,
              "subtitle": "The gist",
              "title": "Give yourself some time off.",
              "text": "<p><\/p><p>You can rest easy knowing that all our products are clean, vegan, cruelty free, sustainable, locally made, and made in small batches. Take some time and treat yourself with Hermit.<br\/><br\/><\/p>",
              "button_label": "Shop",
              "button_link": "shopify:\/\/collections\/frontpage",
              "button_style": "secondary",
              "layout": "right",
              "alt": false
            }
          },
          "1594838415144": {
            "type": "marquee",
            "settings": {
              "text": "Let's hermit.",
              "link": "shopify:\/\/collections\/frontpage",
              "text_size": 36,
              "text_spacing": true,
              "color_scheme": "button",
              "direction": "left",
              "speed": "normal"
            }
          },
          "1594838473397": {
            "type": "text-columns",
            "settings": {
              "title": "We believe in...",
              "align_text": "center",
              "alt": true,
              "enable_image_1": false,
              "image_width_1": 650,
              "title_1": "Transparency",
              "text_1": "<p>At Hermit, we pride ourselves on using clean ingredients to create simple formulas that actually work. Whoever said less is more was right.<\/p>",
              "button_label_1": "",
              "enable_image_2": false,
              "image_width_2": 650,
              "title_2": "Accessibility",
              "text_2": "<p>Everyone deserves to have quality products at an affordable price. Our products are for everyone, from every walk of life.<br\/><\/p>",
              "button_label_2": "",
              "enable_image_3": false,
              "image_width_3": 650,
              "title_3": "",
              "text_3": "",
              "button_label_3": ""
            }
          }
        },
        "block_order": [
          "1594838312544",
          "1594838359244",
          "1594838461795",
          "1594838415144",
          "1594838473397"
        ],
        "settings": {
          "page_title_enable": false,
          "page_content_enable": false
        }
      },
      "newsletter-popup": {
        "type": "newsletter-popup",
        "settings": {
          "mode": "disabled",
          "popup_seconds": 10,
          "popup_days": 30,
          "popup_title": "Become a hermit.",
          "popup_text": "<p>Be the first to know about deals and new products.<\/p>",
          "enable_newsletter": false,
          "button_label": ""
        }
      },
      "list-collections-template": {
        "type": "list-collections-template",
        "settings": {
          "title_enable": true,
          "display_type": "all",
          "sort": "alphabetical"
        }
      },
      "1555097143929": {
        "type": "text-and-image",
        "settings": {
          "image": "shopify:\/\/shop_images\/Lady-Gua-Sha.jpg",
          "image2": "shopify:\/\/shop_images\/Water.jpg",
          "image_width": 700,
          "subtitle": "",
          "title": "Go au naturel with all-natural.",
          "text": "<p>Simple and clean is our motto. All of our products are made with your wellbeing in mind so you can feel good about what your skin&#x27;s wearing.<\/p>",
          "button_label": "Shop",
          "button_link": "shopify:\/\/collections\/frontpage",
          "button_style": "secondary",
          "layout": "right",
          "alt": false
        }
      },
      "1556162914490": {
        "type": "featured-collection-slider",
        "settings": {
          "title": "Get to know our bestsellers.",
          "description": "We can't leave our houses, we might as well pamper ourselves.",
          "home_featured_products": "frontpage",
          "per_row": "small",
          "alt": true
        }
      },
      "1558626745581": {
        "type": "featured-content",
        "settings": {
          "title": "",
          "text": "<p>Small-batch, wellbeing essentials made with the best ingredients for you to unwind, recharge and settle in.<\/p><p><\/p><p>Take time and find your inner hermit. <\/p>",
          "align_text": "center",
          "narrow_column": true,
          "enlarge_text": true,
          "alt": false
        }
      },
      "1559155590855": {
        "type": "text-column-links",
        "blocks": {
          "1559155590855-0": {
            "type": "text_block",
            "settings": {
              "enable_image": true,
              "image_width": 180,
              "title": "Chill :)",
              "link": "shopify:\/\/collections\/calm"
            }
          },
          "1559155590855-1": {
            "type": "text_block",
            "settings": {
              "enable_image": true,
              "image_width": 180,
              "title": "Revitalize!",
              "link": "shopify:\/\/collections\/recharge"
            }
          }
        },
        "block_order": [
          "1559155590855-0",
          "1559155590855-1"
        ],
        "settings": {
          "title": "Are you looking to hermit and...?",
          "align_text": "center",
          "alt": false
        }
      },
      "password-header": {
        "type": "password-header",
        "settings": {
          "logo": "",
          "desktop_logo_width": 200,
          "mobile_logo_width": 140
        }
      },
      "password-content": {
        "type": "password-content",
        "settings": {
          "title": "Be the first to know",
          "show_password_message": false,
          "text": "",
          "newsletter_enable": true,
          "newsletter_placeholder": "Enter your email",
          "newsletter_button_text": "Submit",
          "show_share_buttons": false,
          "show_image": true,
          "image": ""
        }
      },
      "product-recommendations": {
        "type": "product-recommendations",
        "settings": {
          "show_product_recommendations": true,
          "product_recommendations_heading": "Other items you might be into...",
          "per_row": "small"
        }
      },
      "social": {
        "type": "social",
        "blocks": {
          "1597343626226": {
            "type": "post",
            "settings": {
              "link": "",
              "product": "",
              "account": "",
              "caption": "",
              "likes": ""
            }
          }
        },
        "block_order": [
          "1597343626226"
        ],
        "settings": {
          "enable_home": false,
          "enable_product": false,
          "enable_collection": false,
          "title": "Follow Along",
          "description": ""
        }
      },
      "1594743442109": {
        "type": "slideshow",
        "blocks": {
          "1594743442109-0": {
            "type": "image",
            "settings": {
              "title": "It's time to hermit.",
              "title_size": 77,
              "subheading": "",
              "link_text": "",
              "color_accent": "rgba(0,0,0,0)",
              "text_align": "vertical-center horizontal-left",
              "image": "shopify:\/\/shop_images\/Blue-Soap-Background.jpg",
              "image_mobile": "shopify:\/\/shop_images\/Mobile.jpg",
              "focal_point": "50% 90%"
            }
          }
        },
        "block_order": [
          "1594743442109-0"
        ],
        "settings": {
          "style": "minimal",
          "desktop_size": 0,
          "mobile_size": 0,
          "autoplay": false,
          "autoplay_speed": 7
        }
      },
      "collection-header": {
        "type": "collection-header",
        "settings": {
          "collection_image_enable": true,
          "description_enable": true
        }
      },
      "collection-filters": {
        "type": "collection-filters",
        "blocks": {
          "1597375668314": {
            "type": "tags_group",
            "settings": {
              "title": "",
              "tag_list": "All \nBody\nFace"
            }
          }
        },
        "block_order": [
          "1597375668314"
        ],
        "settings": {
          "filter_type": "groups",
          "tags_combine": true,
          "collection_sort_enable": false
        }
      },
      "page-contact-template": {
        "type": "page-contact-template",
        "blocks": {
          "page-contact-template-0": {
            "type": "contact-form",
            "settings": {
              "title": "",
              "show_phone": false,
              "narrow_column": true
            }
          }
        },
        "block_order": [
          "page-contact-template-0"
        ],
        "settings": {
          "page_title_enable": true,
          "page_content_enable": true
        }
      },
      "page-faq-template": {
        "type": "page-faq-template",
        "blocks": {
          "1596644084614": {
            "type": "rich-text",
            "settings": {
              "title": "",
              "text": "<p>Shipping &amp; Returns<\/p>",
              "align_text": "left"
            }
          },
          "1596644110914": {
            "type": "question",
            "settings": {
              "title": "Where do you ship?",
              "text": "<p>Currently we only ship within Canada.&nbsp;We offer $10&nbsp;flat rate Shipping and&nbsp;free shipping on orders over $50.<\/p>"
            }
          },
          "1596644157531": {
            "type": "question",
            "settings": {
              "title": "How long does shipping take?",
              "text": "<p>All orders are shipped within 1-2 business days. You will receive an email with tracking information when your order has been shipped.<\/p>"
            }
          },
          "page-faq-template-4": {
            "type": "question",
            "settings": {
              "title": "Do you accept returns?",
              "text": "<p>If you need to return something, please <a href=\"\/pages\/contact\" title=\"Contact Us\">contact us<\/a>&nbsp;and we will do our best to accommodate you.<\/p>"
            }
          },
          "1596644369449": {
            "type": "rich-text",
            "settings": {
              "title": "",
              "text": "<p><\/p>\n<p>Product<\/p>",
              "align_text": "left"
            }
          },
          "1596644378694": {
            "type": "question",
            "settings": {
              "title": "How many baths will a soak make?",
              "text": "<p>This is up to you! We recommend using about 1\/4 cup per bath to get about 4-6 baths per jar, but feel free to use more or less depending on your preference.<\/p>"
            }
          },
          "1596644439938": {
            "type": "question",
            "settings": {
              "title": "Can I use your products while I am pregnant or breastfeeding?",
              "text": "<p>Our products only contain 100% organic or all natural ingredients, but please consult your doctor when you are pregnant or breastfeeding before using products containing essential oils.&nbsp;<\/p>"
            }
          },
          "page-faq-template-0": {
            "type": "rich-text",
            "settings": {
              "title": "",
              "text": "<p><\/p>\n<p>Wholesale<\/p>",
              "align_text": "left"
            }
          },
          "page-faq-template-1": {
            "type": "question",
            "settings": {
              "title": "Can I carry your product in my store?",
              "text": "<p>Yes, we love partnering with local businesses! You can apply to carry our products in your store <a href=\"\/pages\/contact\" title=\"Contact Us\">here<\/a>.<\/p>"
            }
          }
        },
        "block_order": [
          "1596644084614",
          "1596644110914",
          "1596644157531",
          "page-faq-template-4",
          "1596644369449",
          "1596644378694",
          "1596644439938",
          "page-faq-template-0",
          "page-faq-template-1"
        ],
        "settings": {
          "page_title_enable": true,
          "page_content_enable": false
        }
      },
      "1597256047553": {
        "type": "marquee-banner",
        "settings": {
          "image": "shopify:\/\/shop_images\/Blue-Banner.jpg",
          "image_alignment": "80% 50%",
          "text": "'Hermit products are my nightly ritual.' - Ellen K.",
          "marquee_text_size": 50,
          "marquee_text_spacing": true,
          "marquee_color_scheme": "button",
          "marquee_direction": "left",
          "marquee_speed": "normal"
        }
      },
      "product-refreshing-face-mist": {
        "type": "product-refreshing-face-mist",
        "blocks": {
          "1597258865474": {
            "type": "text-and-image",
            "settings": {
              "image_width": 700,
              "subtitle": "how to use",
              "title": "Uplift your skin.",
              "text": "<p>Heal and cleanse with every spray. Use as a toner or pop it in your bag to use throughout your hectic day.<\/p>",
              "button_label": "",
              "button_style": "primary",
              "layout": "right",
              "alt": false
            }
          }
        },
        "block_order": [
          "1597258865474"
        ],
        "settings": {
        }
      },
      "product-sea-salt-soak": {
        "type": "product-sea-salt-soak",
        "blocks": {
          "1597857837745": {
            "type": "text-and-image",
            "settings": {
              "image": "shopify:\/\/shop_images\/White-Salts-Blue.jpg",
              "image_width": 380,
              "subtitle": "How to use",
              "title": "It's time to soak.",
              "text": "<p>Ready to unwind? Draw yourself a hot bath and add ⅓ cup of this soak to your tub. Gently stir to dissolve and climb on in. Enjoy.<\/p>",
              "button_label": "",
              "button_style": "primary",
              "layout": "right",
              "alt": false
            }
          }
        },
        "block_order": [
          "1597857837745"
        ],
        "settings": {
        }
      },
      "product-relaxing-face-mist": {
        "type": "product-relaxing-face-mist",
        "blocks": {
          "1597697927597": {
            "type": "text-and-image",
            "settings": {
              "image_width": 700,
              "subtitle": "How to use",
              "title": "Keep calm and mist on.",
              "text": "<p>Relax and cleanse with every spray. Use as a toner or pop it in your bag to use throughout your hectic day.<\/p>",
              "button_label": "",
              "button_style": "primary",
              "layout": "right",
              "alt": false
            }
          }
        },
        "block_order": [
          "1597697927597"
        ],
        "settings": {
        }
      },
      "product-charcoal-salt-soak": {
        "type": "product-charcoal-salt-soak",
        "blocks": {
          "1597857552816": {
            "type": "text-and-image",
            "settings": {
              "image": "shopify:\/\/shop_images\/Black-Blue-Salta.jpg",
              "image2": "shopify:\/\/shop_images\/Black-Blue-Salt.jpg",
              "image_width": 700,
              "subtitle": "HOW TO USE",
              "title": "It's time to soak.",
              "text": "<p>Ready to relax? Draw yourself a hot bath and add ⅓ cup of this soak to your tub. Gently stir to dissolve and climb on in. Enjoy.<\/p>",
              "button_label": "",
              "button_style": "primary",
              "layout": "right",
              "alt": false
            }
          }
        },
        "block_order": [
          "1597857552816"
        ],
        "settings": {
        }
      },
      "product-hydrating-body-oil": {
        "type": "product-hydrating-body-oil",
        "blocks": {
          "1597857983474": {
            "type": "text-and-image",
            "settings": {
              "image_width": 700,
              "subtitle": "How to use",
              "title": "Dry skin, be gone.",
              "text": "<p>Rub oil between your hands, breathing in the soft floral aromas. Apply to wet, dry, or freshly shaved skin for that smooth feeling.<\/p><p><\/p>",
              "button_label": "",
              "button_style": "primary",
              "layout": "right",
              "alt": false
            }
          },
          "79e88dd7-109f-46f1-8e68-11baddade60b": {
            "type": "rich-text",
            "settings": {
              "title": "Dry skin, be gone.",
              "text": "<p>Rub oil between your hands, breathing in the soft floral aromas. Apply to wet, dry, or freshly shaved skin for that smooth feeling.<\/p>",
              "align_text": "center",
              "narrow_column": true,
              "enlarge_text": false,
              "alt": false
            }
          }
        },
        "block_order": [
          "1597857983474",
          "79e88dd7-109f-46f1-8e68-11baddade60b"
        ],
        "settings": {
        }
      },
      "product-reusable-razor": {
        "type": "product-reusable-razor",
        "blocks": {
          "1598548838748": {
            "type": "text-and-image",
            "settings": {
              "image": "shopify:\/\/shop_images\/Water-Razor.jpg",
              "image2": "shopify:\/\/shop_images\/Shave-Arm.jpg",
              "image_width": 700,
              "subtitle": "How to use",
              "title": "Never used a safety razor before?",
              "text": "<p>Don&#x27;t stress. We&#x27;ve included a little how-to-use guide inside every razor&#x27;s box. <\/p>",
              "button_label": "",
              "button_style": "primary",
              "layout": "right",
              "alt": false
            }
          }
        },
        "block_order": [
          "1598548838748"
        ],
        "settings": {
        }
      },
      "product-himalayan-salt-soak": {
        "type": "product-himalayan-salt-soak",
        "blocks": {
          "8be97ac7-8b02-42f4-94cc-d35d789a3851": {
            "type": "text-and-image",
            "settings": {
              "image": "shopify:\/\/shop_images\/Him-Blue-Salt-Hands.jpg",
              "image2": "shopify:\/\/shop_images\/Salt-Blue-Natural.jpg",
              "image_width": 700,
              "subtitle": "How to use",
              "title": "It's time to soak.",
              "text": "<p>Ready to unwind? Draw yourself a hot bath and add ⅓ cup of this soak to your tub. Gently stir to dissolve and climb on in. Enjoy.<\/p>",
              "button_label": "",
              "button_style": "primary",
              "layout": "right",
              "alt": false
            }
          }
        },
        "block_order": [
          "8be97ac7-8b02-42f4-94cc-d35d789a3851"
        ],
        "settings": {
        }
      }
    },
    "content_for_index": [
      "1594743442109",
      "1558626745581",
      "1555097143929",
      "1556162914490",
      "1597256047553",
      "1559155590855"
    ]
  }
}